digraph {
graph [overlap=false]
node [shape=doublecircle];
"overloading" -> "warnings";
"File::Temp" -> "File::Spec::Unix";
"Shorewall::Compiler" -> "Shorewall::Zones";
"Shorewall::IPAddrs" -> "Shorewall::IPAddrs";
"Cwd" -> "strict";
"Shorewall::ARP" -> "Exporter";
"Shorewall::Proxyarp" -> "Exporter";
"FindBin" -> "FindBin";
"Shorewall::Tc" -> "Shorewall::Chains";
"Shorewall::Compiler" -> "Shorewall::Misc";
"Shorewall::Config" -> "warnings";
"IO" -> "Exporter";
"main" -> "File::Temp";
"Shorewall::Nat" -> "Shorewall::Providers";
"FindBin" -> "Cwd";
"Shorewall::Providers" -> "Shorewall::Proc";
"Shorewall::Proc" -> "Exporter";
"Shorewall::Compiler" -> "Shorewall::ARP";
"Config" -> "vars";
"Shorewall::Tc" -> "Exporter::Heavy";
"Shorewall::Compiler" -> "Shorewall::Proxyarp";
"Shorewall::Config" -> "autouse";
"Getopt::Long::CallBack" -> "overload";
"Shorewall::Raw" -> "Shorewall::Config";
"overload" -> "overloading";
"File::Basename" -> "strict";
"constant" -> "constant";
"parent" -> "vars";
"Shorewall::Tc" -> "Shorewall::Tc";
"File::Basename" -> "File::Basename";
"IO::Handle" -> "XSLoader";
"IO::Seekable" -> "Exporter";
"Shorewall::Compiler" -> "Shorewall::Proc";
"File::Path" -> "File::Path";
"Digest::base" -> "strict";
"overload" -> "warnings::register";
"Carp" -> "warnings";
"Shorewall::Config" -> "File::Temp";
"Shorewall::Tc" -> "strict";
"Shorewall::Providers" -> "Exporter";
"Shorewall::Chains" -> "Shorewall::IPAddrs";
"Exporter::Heavy" -> "Exporter::Heavy";
"lib" -> "strict";
"Exporter::Heavy" -> "strict";
"Shorewall::Proxyarp" -> "Shorewall::Zones";
"Shorewall::IPAddrs" -> "constant";
"main" -> "Getopt::Long";
"Shorewall::Chains" -> "Digest::SHA";
"Shorewall::Config" -> "strict";
"Shorewall::Zones" -> "Exporter";
"Shorewall::Rules" -> "Shorewall::Rules";
"IO" -> "strict";
"FindBin" -> "File::Spec::Unix";
"Shorewall::Config" -> "File::Basename";
"Getopt::Long" -> "vars";
"vars" -> "warnings::register";
"Shorewall::ARP" -> "Shorewall::Config";
"Digest::SHA" -> "Exporter";
"Errno" -> "strict";
"Shorewall::Tunnels" -> "Shorewall::Config";
"Shorewall::Misc" -> "Shorewall::Misc";
"Shorewall::Compiler" -> "Shorewall::Compiler";
"Shorewall::Compiler" -> "Shorewall::Accounting";
"Shorewall::Providers" -> "strict";
"File::Temp" -> "overload";
"Shorewall::Proc" -> "Shorewall::Config";
"IO::Handle" -> "Symbol";
"FindBin" -> "Carp";
"main" -> "strict";
"constant" -> "Internals";
"File::Temp" -> "constant";
"Shorewall::Compiler" -> "strict";
"Shorewall::Config" -> "Carp::Heavy";
"File::Temp" -> "XSLoader";
"File::Temp" -> "Exporter";
"Shorewall::Accounting" -> "Shorewall::Config";
"Exporter" -> "Exporter::Heavy";
"Shorewall::Chains" -> "Shorewall::Zones";
"Digest::SHA" -> "integer";
"FindBin" -> "Exporter";
"Shorewall::Nat" -> "strict";
"List::Util" -> "warnings";
"DynaLoader" -> "Digest::SHA";
"Shorewall::Config" -> "Scalar::Util";
"IO::Handle" -> "IO";
"Shorewall::Config" -> "XSLoader";
"overload" -> "overload";
"Shorewall::Config" -> "Digest::SHA";
"Getopt::Long" -> "Getopt::Long";
"constant" -> "mro";
"File::Spec::Unix" -> "strict";
"main" -> "main";
"Socket" -> "strict";
"File::Temp" -> "UNIVERSAL";
"Shorewall::Compiler" -> "Shorewall::Raw";
"Carp" -> "strict";
"main" -> "Shorewall::Config";
"Shorewall::Config" -> "Config";
"Shorewall::Proxyarp" -> "strict";
"Shorewall::Chains" -> "Scalar::Util";
"lib" -> "version";
"Shorewall::Config" -> "Errno";
"constant" -> "warnings::register";
"main" -> "Config";
"Shorewall::Compiler" -> "Shorewall::Rules";
"parent" -> "strict";
"lib" -> "lib";
"Shorewall::Tc" -> "Shorewall::Config";
"IO::Handle" -> "SelectSaver";
"Shorewall::Nat" -> "Shorewall::Config";
"Shorewall::Compiler" -> "Shorewall::Chains";
"main" -> "Getopt::Long::CallBack";
"warnings" -> "warnings";
"Shorewall::Providers" -> "Shorewall::Chains";
"Shorewall::Rules" -> "Shorewall::IPAddrs";
"File::Spec" -> "strict";
"main" -> "lib";
"Shorewall::Tc" -> "constant";
"Shorewall::ARP" -> "strict";
"Shorewall::Tunnels" -> "Shorewall::Zones";
"Exporter::Heavy" -> "warnings";
"main" -> "Exporter";
"Shorewall::Misc" -> "Shorewall::Rules";
"main" -> "FindBin";
"autouse" -> "Exporter";
"Shorewall::Compiler" -> "Exporter::Heavy";
"Shorewall::Tc" -> "Exporter";
"Errno" -> "Errno";
"Shorewall::Chains" -> "constant";
"Shorewall::Zones" -> "strict";
"File::Temp" -> "parent";
"Getopt::Long" -> "constant";
"Shorewall::Config" -> "Shorewall::User";
"File::Glob" -> "warnings";
"Cwd" -> "Exporter";
"File::Path" -> "Exporter";
"Shorewall::Compiler" -> "Shorewall::Tunnels";
"Shorewall::Tunnels" -> "strict";
"File::Temp" -> "File::Temp";
"Shorewall::Providers" -> "Shorewall::Config";
"File::Temp" -> "File::Path";
"File::Spec::Unix" -> "File::Spec::Unix";
"Scalar::Util" -> "warnings";
"Socket" -> "warnings::register";
"main" -> "Shorewall::Compiler";
"Shorewall::Rules" -> "Shorewall::Zones";
"Shorewall::Chains" -> "Exporter";
"File::Path" -> "vars";
"Carp" -> "Carp";
"Shorewall::Tc" -> "warnings";
"Shorewall::Providers" -> "Shorewall::Providers";
"Shorewall::Compiler" -> "Exporter";
"File::Temp" -> "List::Util";
"File::Temp" -> "Fcntl";
"Shorewall::Rules" -> "strict";
"Shorewall::Raw" -> "strict";
"FindBin" -> "File::Basename";
"warnings::register" -> "warnings";
"autouse" -> "UNIVERSAL";
"Shorewall::Rules" -> "Shorewall::Raw";
"File::Temp" -> "IO::Seekable";
"Getopt::Long" -> "Exporter";
"Shorewall::Proc" -> "strict";
"Shorewall::Chains" -> "Shorewall::Config";
"Shorewall::Chains" -> "XSLoader";
"Shorewall::Chains" -> "Socket";
"Shorewall::Misc" -> "Shorewall::Zones";
"Shorewall::Config" -> "DynaLoader";
"Shorewall::Compiler" -> "Shorewall::Providers";
"IO" -> "warnings";
"constant" -> "strict";
"SelectSaver" -> "Exporter";
"parent" -> "parent";
"autouse" -> "warnings";
"Shorewall::Zones" -> "Shorewall::Config";
"File::Temp" -> "Scalar::Util";
"Shorewall::Nat" -> "Exporter";
"Cwd" -> "vars";
"Digest::SHA" -> "strict";
"Shorewall::Misc" -> "Exporter";
"Shorewall::Providers" -> "Shorewall::Zones";
"Shorewall::Rules" -> "Exporter";
"Shorewall::Misc" -> "strict";
"File::Temp::Dir" -> "Exporter";
"Shorewall::Compiler" -> "Shorewall::Tc";
"Shorewall::Proxyarp" -> "Shorewall::Config";
"Shorewall::Config" -> "Shorewall::Config";
"File::Temp::Dir" -> "strict";
"Shorewall::Zones" -> "Shorewall::Zones";
"Shorewall::Rules" -> "constant";
"File::Temp" -> "Errno";
"Exporter" -> "Exporter";
"Shorewall::Compiler" -> "Shorewall::Nat";
"Shorewall::Config" -> "Fcntl";
"Shorewall::Tc" -> "Shorewall::Providers";
"List::Util" -> "strict";
"Shorewall::IPAddrs" -> "strict";
"File::Temp" -> "strict";
"Shorewall::IPAddrs" -> "warnings";
"Shorewall::Zones" -> "Shorewall::IPAddrs";
"Shorewall::Misc" -> "Shorewall::Chains";
"Shorewall::User" -> "strict";
"IO::Seekable" -> "IO::Handle";
"DynaLoader" -> "DynaLoader";
"Fcntl" -> "strict";
"Shorewall::Compiler" -> "Shorewall::Config";
"File::Spec::Unix" -> "vars";
"File::Path" -> "strict";
"File::Spec" -> "vars";
"Shorewall::Tc" -> "Shorewall::Rules";
"Shorewall::Providers" -> "constant";
"File::Basename" -> "warnings";
"Shorewall::Config" -> "Shorewall::Rules";
"FindBin" -> "XSLoader";
"File::Temp" -> "vars";
"Shorewall::Chains" -> "strict";
"File::Glob" -> "strict";
"Config" -> "warnings";
"Digest::base" -> "vars";
"Shorewall::Proc" -> "Shorewall::Zones";
"Digest::SHA" -> "vars";
"File::Spec::Unix" -> "constant";
"Shorewall::Config" -> "Exporter";
"Shorewall::Rules" -> "Shorewall::Config";
"FindBin" -> "File::Spec";
"Getopt::Long" -> "strict";
"Shorewall::Config" -> "Exporter::Heavy";
"strict" -> "strict";
"Shorewall::Rules" -> "Shorewall::Chains";
"Shorewall::Accounting" -> "constant";
"vars" -> "strict";
"Socket" -> "Exporter";
"DynaLoader" -> "Config";
"Shorewall::IPAddrs" -> "Exporter";
"Shorewall::Chains" -> "Shorewall::Chains";
"Getopt::Long" -> "UNIVERSAL";
"Shorewall::Raw" -> "Exporter";
"IO::Handle" -> "Exporter";
"Config" -> "strict";
"Shorewall::Config" -> "File::Glob";
"IO::Handle" -> "strict";
"File::Glob" -> "Exporter";
"Shorewall::Compiler" -> "Shorewall::IPAddrs";
"Shorewall::Misc" -> "Shorewall::Config";
"Shorewall::IPAddrs" -> "Shorewall::Config";
"Shorewall::Accounting" -> "Exporter";
"IO::Seekable" -> "strict";
"autouse" -> "autouse";
"Scalar::Util" -> "strict";
"Shorewall::Zones" -> "constant";
"File::Temp::Dir" -> "overload";
"Shorewall::Tunnels" -> "Exporter";
"vars" -> "vars";
"Shorewall::Accounting" -> "strict";
"Shorewall::Config" -> "File::Temp::Dir";
"Digest::SHA" -> "warnings";
"lib" -> "Config";
"Shorewall::Config" -> "constant";
"Fcntl" -> "File::Temp";
"Shorewall::Config" -> "Digest::base";
"Shorewall::Config" -> "Cwd";
}
